…
### Import Dataset

Load dataset from results of web scraping (Google Scholar/Octoparse) and
clean column names

``` r
df_raw <- read_excel("C:/Users/Clint/Downloads/Data Project/google_scholar_article_listing_raw.xlsx")
clean_df_raw <- clean_names(df_raw)
df_a <- clean_df_raw #rename for simplicity
print(df_a)
```

    ## # A tibble: 579 × 8
    ##    title   author published_year description article_link cited_for all_versions
    ##    <chr>   <chr>  <chr>          <chr>       <chr>        <chr>     <chr>       
    ##  1 From N… BL Ma… 1991           "… politic… https://www… 322       4           
    ##  2 [BOOK]… NI Pa… 2006           "… deepen … https://boo… 357       3           
    ##  3 The sh… CL Ni… 2007           "… As WEB … https://hei… 60        4           
    ##  4 [BOOK]… TM Sh… 2004           "… Black W… https://boo… 1634      7           
    ##  5 The Ne… G Ear… 2008           "… the sam… https://www… 20        8           
    ##  6 Wealth… T Cra… 2020           "… We will… https://jou… 55        4           
    ##  7 [BOOK]… HL Ga… 2008           "… to chan… https://www… 217       6           
    ##  8 [BOOK]… BT Wa… 2011           "… church … https://boo… 208       8           
    ##  9 [BOOK]… A App… 2005           "… history… https://boo… 595       4           
    ## 10 Gettin… D Con… 1999           "… In the … https://www… 58        6           
    ## # ℹ 569 more rows
    ## # ℹ 1 more variable: related_articles_link <chr>
…
``` r
df_a[, c(3, 6, 7)] <-lapply(df_a[, c(3, 6, 7)], as.integer)
```

    ## Warning in lapply(df_a[, c(3, 6, 7)], as.integer): NAs introduced by coercion

``` r
#df_a[, c(1, 2)] <- apply(df_a[, c(1, 2)], 2, tolower)
df_a$title <- tolower(df_a$title)
print(df_a)
```

    ## # A tibble: 579 × 8
    ##    title   author published_year description article_link cited_for all_versions
    ##    <chr>   <chr>           <int> <chr>       <chr>            <int>        <int>
    ##  1 from n… BL Ma…           1991 "… politic… https://www…       322            4
    ##  2 [book]… NI Pa…           2006 "… deepen … https://boo…       357            3
    ##  3 the sh… CL Ni…           2007 "… As WEB … https://hei…        60            4
    ##  4 [book]… TM Sh…           2004 "… Black W… https://boo…      1634            7
    ##  5 the ne… G Ear…           2008 "… the sam… https://www…        20            8
    ##  6 wealth… T Cra…           2020 "… We will… https://jou…        55            4
    ##  7 [book]… HL Ga…           2008 "… to chan… https://www…       217            6
    ##  8 [book]… BT Wa…           2011 "… church … https://boo…       208            8
    ##  9 [book]… A App…           2005 "… history… https://boo…       595            4
    ## 10 gettin… D Con…           1999 "… In the … https://www…        58            6
    ## # ℹ 569 more rows
    ## # ℹ 1 more variable: related_articles_link <chr>

Verify data to ensure title include specific keywords

``` r
filter_df <- df_a[grepl("african|negro|black", 
                           tolower(df_a$title)) & grepl("history", tolower(df_a$description)), ] 
print(filter_df)
```

    ## # A tibble: 120 × 8
    ##    title   author published_year description article_link cited_for all_versions
    ##    <chr>   <chr>           <int> <chr>       <chr>            <int>        <int>
    ##  1 [book]… NI Pa…           2006 "… deepen … https://boo…       357            3
    ##  2 [book]… A App…           2005 "… history… https://boo…       595            4
    ##  3 [book]… M Mar…           2006 "… of weal… https://boo…       179            4
    ##  4 [book]… WD Jo…           2013 "… So whet… https://boo…      4229            7
    ##  5 [book]… P Fin…           2009 "… two enc… https://boo…        79            3
    ##  6 [book]… B Qua…           1996 "… African… https://boo…       711            3
    ##  7 [book]… WS Ro…           2009 "… , white… https://boo…        14            2
    ##  8 “negro… RO Se…           2003 "… that hi… https://lin…        14           NA
    ##  9 [book]… WEB D…           2017 "… tions t… https://www…      5715            5
    ## 10 [html]… R Aus…           2004 "… he is m… https://sea…        29            3
    ## # ℹ 110 more rows
    ## # ℹ 1 more variable: related_articles_link <chr>

Remove columns outside of project objective, populate empty fields in
new column “format”

``` r
df <- filter_df[ -c(4, 5, 7, 8) ]
df$format <- NA #assign NA to null
print(df)
```

    ## # A tibble: 120 × 5
    ##    title                                  author published_year cited_for format
    ##    <chr>                                  <chr>           <int>     <int> <lgl> 
    ##  1 [book][b] creating black americans: a… NI Pa…           2006       357 NA    
    ##  2 [book][b] africana: the encyclopedia … A App…           2005       595 NA    
    ##  3 [book][b] living black history: how r… M Mar…           2006       179 NA    
    ##  4 [book][b] white over black: american … WD Jo…           2013      4229 NA    
    ##  5 [book][b] encyclopedia of african ame… P Fin…           2009        79 NA    
    ##  6 [book][b] negro in the making of amer… B Qua…           1996       711 NA    
    ##  7 [book][b] the african american entrep… WS Ro…           2009        14 NA    
    ##  8 “negro leadership and negro money”: a… RO Se…           2003        14 NA    
    ##  9 [book][b] black reconstruction in ame… WEB D…           2017      5715 NA    
    ## 10 [html][html] kwanzaa and the commodif… R Aus…           2004        29 NA    
    ## # ℹ 110 more rows

Prepare data for organization; populate format column based on 1 of 3
keywords from title; replace “NA” in cited_for with “0” (avoid
summarizing error)

``` r
df$format [grep("book", df$title)] <- "book"
df$format [grep("pdf", df$title)] <- "pdf"
df$format [is.na(df$format)] <- "article"
df$cited_for [is.na(df$cited_for)] <- 0
print(df)
```

    ## # A tibble: 120 × 5
    ##    title                                  author published_year cited_for format
    ##    <chr>                                  <chr>           <int>     <dbl> <chr> 
    ##  1 [book][b] creating black americans: a… NI Pa…           2006       357 book  
    ##  2 [book][b] africana: the encyclopedia … A App…           2005       595 book  
    ##  3 [book][b] living black history: how r… M Mar…           2006       179 book  
    ##  4 [book][b] white over black: american … WD Jo…           2013      4229 book  
    ##  5 [book][b] encyclopedia of african ame… P Fin…           2009        79 book  
    ##  6 [book][b] negro in the making of amer… B Qua…           1996       711 book  
    ##  7 [book][b] the african american entrep… WS Ro…           2009        14 book  
    ##  8 “negro leadership and negro money”: a… RO Se…           2003        14 artic…
    ##  9 [book][b] black reconstruction in ame… WEB D…           2017      5715 book  
    ## 10 [html][html] kwanzaa and the commodif… R Aus…           2004        29 artic…
    ## # ℹ 110 more rows
…
